2022-01-31 11:26:50,911 [INFO] Activator:177 - 


2022-01-31 11:26:50,913 [INFO] Activator:178 - !SESSION log4j initialized
2022-01-31 11:26:58,379 [ERROR] AnalyticsContext:980 - The ST intranet updater server is unknown: mcucrossselector.codex.cro.st.com
2022-01-31 11:28:53,750 [INFO] Activator:177 - 


2022-01-31 11:28:53,751 [INFO] Activator:178 - !SESSION log4j initialized
2022-01-31 11:28:56,477 [ERROR] AnalyticsContext:980 - The ST intranet updater server is unknown: mcucrossselector.codex.cro.st.com
